\relax 
\catcode `:\active 
\catcode `;\active 
\catcode `!\active 
\catcode `?\active 
\select@language{french}
\@writefile{toc}{\select@language{french}}
\@writefile{lof}{\select@language{french}}
\@writefile{lot}{\select@language{french}}
\@writefile{lof}{\contentsline {figure}{\numberline {1}{\ignorespaces }}{4}}
\@writefile{lof}{\contentsline {figure}{\numberline {2}{\ignorespaces Example of a parametric plot ($\mathop {\mathgroup \symoperators sin}\nolimits (x), \mathop {\mathgroup \symoperators cos}\nolimits (x), x$)}}{4}}
\@writefile{lof}{\contentsline {figure}{\numberline {3}{\ignorespaces Example of a parametric plot ($\mathop {\mathgroup \symoperators sin}\nolimits (x), \mathop {\mathgroup \symoperators cos}\nolimits (x), x$)}}{5}}
