x:
[[-1.  -1.  -1. ]
 [-0.5 -1.  -2. ]
 [ 0.   0.   0. ]
 [ 0.5  0.5 -0.5]
 [ 1.  -1.   1. ]]
(5, 3)
__init__:np.shape(basetest)
(5, 3)
x1
[[-1.  -1.  -1. ]
 [-0.5 -1.  -2. ]
 [ 0.   0.   0. ]
 [ 0.5  0.5 -0.5]
 [ 1.  -1.   1. ]]
i=0
i=1
i=2
setScore: estimatedClasses=
[1, 1, 1]
setScore: real classes=
[1, 2, 3]
score: self.succRate=1.0
self.Y
[[-0.60556784 -0.50743    -0.97286448]
 [-0.10877748  0.93887743  0.10451903]
 [-0.71949324 -0.98747161 -0.41136593]
 [-0.66996733 -0.51383991 -0.94603304]
 [-0.60739991  0.85264312 -0.10342702]]
self.Ydes
[[-1 -1 -1]
 [ 1 -1 -1]
 [-1  1 -1]
 [-1 -1  1]
 [-1 -1 -1]]
self.Y[:,i] - self.Ydes[:,i]
[[ 0.39443216 -1.60556784  0.39443216  0.39443216  0.39443216]
 [ 0.89122252 -1.10877748  0.89122252  0.89122252  0.89122252]
 [ 0.28050676 -1.71949324  0.28050676  0.28050676  0.28050676]
 [ 0.33003267 -1.66996733  0.33003267  0.33003267  0.33003267]
 [ 0.39260009 -1.60739991  0.39260009  0.39260009  0.39260009]]
self.Q=[3J[H[2J[8.6513984557700105, 19.611106971766581, 10.593203467314089]


setScore: estimatedClasses=
[1, 1, 1]
setScore: real classes=
[1, 2, 3]
score: self.succRate=1.0
self.Y
[[-0.61510377 -0.52209659 -0.9738904 ]
 [-0.11533411  0.93638418  0.06039407]
 [-0.73003454 -0.98780847 -0.44337293]
 [-0.67269397 -0.52317594 -0.9462263 ]
 [-0.63846323  0.83833142 -0.18900391]]
self.Ydes
[[-1 -1 -1]
 [ 1 -1 -1]
 [-1  1 -1]
 [-1 -1  1]
 [-1 -1 -1]]
self.Y[:,i] - self.Ydes[:,i]
[[ 0.47790341  0.47790341 -1.52209659  0.47790341  0.47790341]
 [ 1.93638418  1.93638418 -0.06361582  1.93638418  1.93638418]
 [ 0.01219153  0.01219153 -1.98780847  0.01219153  0.01219153]
 [ 0.47682406  0.47682406 -1.52317594  0.47682406  0.47682406]
 [ 1.83833142  1.83833142 -0.16166858  1.83833142  1.83833142]]
self.Q=[3J[H[2J[8.6470049178319783, 19.479099774611033, 10.223092094816005]


setScore: estimatedClasses=
[1, 1, 1]
setScore: real classes=
[1, 2, 3]
score: self.succRate=1.0
self.Y
[[-0.62404254 -0.53577915 -0.97483334]
 [-0.12053733  0.93388232  0.01857638]
 [-0.73939416 -0.98810668 -0.47169422]
 [-0.67525581 -0.53201788 -0.94638058]
 [-0.66512993  0.82332709 -0.26460771]]
self.Ydes
[[-1 -1 -1]
 [ 1 -1 -1]
 [-1  1 -1]
 [-1 -1  1]
 [-1 -1 -1]]
self.Y[:,i] - self.Ydes[:,i]
[[ 0.02516666  0.02516666  0.02516666 -1.97483334  0.02516666]
 [ 1.01857638  1.01857638  1.01857638 -0.98142362  1.01857638]
 [ 0.52830578  0.52830578  0.52830578 -1.47169422  0.52830578]
 [ 0.05361942  0.05361942  0.05361942 -1.94638058  0.05361942]
 [ 0.73539229  0.73539229  0.73539229 -1.26460771  0.73539229]]
self.Q=[3J[H[2J[8.64949641682907, 19.345069170338753, 9.9301666093176824]


setScore: estimatedClasses=
[1, 1, 1]
setScore: real classes=
[1, 2, 3]
score: self.succRate=1.0
self.Y
[[-0.63243972 -0.54857021 -0.97570283]
 [-0.12434117  0.93138471 -0.02063025]
 [-0.74776105 -0.98837242 -0.4968873 ]
 [-0.67766281 -0.54040027 -0.94649786]
 [-0.68814218  0.80757642 -0.33086017]]
self.Ydes
[[-1 -1 -1]
 [ 1 -1 -1]
 [-1  1 -1]
 [-1 -1  1]
 [-1 -1 -1]]
self.Y[:,i] - self.Ydes[:,i]
